^C:\USERS\USER\SOURCE\REPOS\AR_LAB1\TASK2_NEW\TASK2.CPP
C:\USERS\USER\SOURCE\REPOS\AR_LAB1\TASK2_NEW\DEBUG\VC142.PDB
C:\USERS\USER\SOURCE\REPOS\AR_LAB1\TASK2_NEW\DEBUG\VC142.IDB
C:\USERS\USER\SOURCE\REPOS\AR_LAB1\TASK2_NEW\DEBUG\TASK2.OBJ
