^C:\USERS\USER\SOURCE\REPOS\AR_LAB3\TASK2\DEBUG\TASK2.6.OBJ
C:\USERS\USER\SOURCE\REPOS\AR_LAB3\DEBUG\TASK2.6.EXE
C:\USERS\USER\SOURCE\REPOS\AR_LAB3\DEBUG\TASK2.6.ILK
C:\USERS\USER\SOURCE\REPOS\AR_LAB3\DEBUG\TASK2.6.PDB
