^C:\USERS\USER\SOURCE\REPOS\AR_LAB1\TASK3\TASK3.CPP
C:\USERS\USER\SOURCE\REPOS\AR_LAB1\TASK3\DEBUG\VC142.PDB
C:\USERS\USER\SOURCE\REPOS\AR_LAB1\TASK3\DEBUG\VC142.IDB
C:\USERS\USER\SOURCE\REPOS\AR_LAB1\TASK3\DEBUG\TASK3.OBJ
